…
``` r
library(stocksmart)
```

## Stock assessment time series data

Time series data for all federally managed stocks are bundled with the
package

The
[`?stock_assessment_data`](https://noaa-edab.github.io/stocksmart/reference/stock_assessment_data.md)
data object looks like this:

    #> # A tibble: 311,376 × 17
    #>    stock_name        stock_id assessment_id  year value metric description units
    #>    <chr>                <dbl>         <dbl> <dbl> <dbl> <chr>  <chr>       <chr>
    #>  1 Acadian redfish …    10455         14070  1963 10046 Catch  Reported C… Metr…
    #>  2 Acadian redfish …    10455         14070  1964  8352 Catch  Reported C… Metr…
    #>  3 Acadian redfish …    10455         14070  1965  8056 Catch  Reported C… Metr…
    #>  4 Acadian redfish …    10455         14070  1966  8566 Catch  Reported C… Metr…
    #>  5 Acadian redfish …    10455         14070  1967 10775 Catch  Reported C… Metr…
    #>  6 Acadian redfish …    10455         14070  1968  6775 Catch  Reported C… Metr…
    #>  7 Acadian redfish …    10455         14070  1969 12412 Catch  Reported C… Metr…
    #>  8 Acadian redfish …    10455         14070  1970 16743 Catch  Reported C… Metr…
    #>  9 Acadian redfish …    10455         14070  1971 20011 Catch  Reported C… Metr…
    #> 10 Acadian redfish …    10455         14070  1972 19110 Catch  Reported C… Metr…
    #> # ℹ 311,366 more rows
    #> # ℹ 9 more variables: assessment_year <dbl>, jurisdiction <chr>, fmp <chr>,
    #> #   common_name <chr>, scientific_name <chr>, itis <dbl>,
    #> #   assessment_type <chr>, stock_area <chr>, regional_ecosystem <chr>
…
- A data table containing the time series data along with additional
  metadata

``` r
cod$data
#> # A tibble: 209 × 20
#>    stock_name   common_name stock_area   itis assessment_year regional_ecosystem
#>    <chr>        <chr>       <chr>       <dbl>           <dbl> <chr>             
#>  1 Atlantic co… Atlantic c… Eastern G… 164712            2023 Northeast Shelf   
#>  2 Atlantic co… Atlantic c… Eastern G… 164712            2023 Northeast Shelf   
#>  3 Atlantic co… Atlantic c… Eastern G… 164712            2023 Northeast Shelf   
#>  4 Atlantic co… Atlantic c… Eastern G… 164712            2023 Northeast Shelf   
#>  5 Atlantic co… Atlantic c… Eastern G… 164712            2023 Northeast Shelf   
#>  6 Atlantic co… Atlantic c… Eastern G… 164712            2023 Northeast Shelf   
#>  7 Atlantic co… Atlantic c… Eastern G… 164712            2023 Northeast Shelf   
#>  8 Atlantic co… Atlantic c… Eastern G… 164712            2023 Northeast Shelf   
#>  9 Atlantic co… Atlantic c… Eastern G… 164712            2023 Northeast Shelf   
#> 10 Atlantic co… Atlantic c… Eastern G… 164712            2023 Northeast Shelf   
#> # ℹ 199 more rows
#> # ℹ 14 more variables: metric <chr>, FirstYear <dbl>, LastYear <dbl>,
#> #   numYears <dbl>, stock_id <dbl>, assessment_id <dbl>, year <dbl>,
#> #   value <dbl>, description <chr>, units <chr>, jurisdiction <chr>, fmp <chr>,
#> #   scientific_name <chr>, assessment_type <chr>
```
…
